{
    "results": [
        {
            "vote_count": 320,
            "id": 360920,
            "video": false,
            "vote_average": 6.2,
            "title": "The Grinch",
            "popularity": 124.85,
            "poster_path": "\/lCfKAAFyANPFn04xOPqazd8jwnc.jpg",
            "original_language": "en",
            "original_title": "The Grinch",
            "genre_ids": [
                16,
                10751,
                35,
                14
            ],
            "backdrop_path": "\/juc9wt7Eh2IarLL5S1yQ1a21O1A.jpg",
            "adult": false,
            "overview": "The Grinch hatches a scheme to ruin Christmas when the residents of Whoville plan their annual holiday celebration.",
            "release_date": "2018-11-08"
        },
        {
            "vote_count": 2040,
            "id": 332562,
            "video": false,
            "vote_average": 7.4,
            "title": "A Star Is Born",
            "popularity": 98.306,
            "poster_path": "\/wrFpXMNBRj2PBiN4Z5kix51XaIZ.jpg",
            "original_language": "en",
            "original_title": "A Star Is Born",
            "genre_ids": [
                18,
                10402,
                10749
            ],
            "backdrop_path": "\/840rbblaLc4SVxm8gF3DNdJ0YAE.jpg",
            "adult": false,
            "overview": "Seasoned musician Jackson Maine discovers\u2014and falls in love with\u2014struggling artist Ally. She has just about given up on her dream to make it big as a singer\u2014until Jack coaxes her into the spotlight. But even as Ally's career takes off, the personal side of their relationship is breaking down, as Jack fights an ongoing battle with his own internal demons.",
            "release_date": "2018-10-03"
        },
        {
            "vote_count": 28,
            "id": 297802,
            "video": false,
            "vote_average": 6.5,
            "title": "Aquaman",
            "popularity": 97.502,
            "poster_path": "\/ydUpl3QkVUCHCq1VWvo2rW4Sf7y.jpg",
            "original_language": "en",
            "original_title": "Aquaman",
            "genre_ids": [
                28,
                14,
                878,
                12,
                10749
            ],
            "backdrop_path": "\/9QusGjxcYvfPD1THg6oW3RLeNn7.jpg",
            "adult": false,
            "overview": "The film reveals the origin story of half-human, half-Atlantean Arthur Curry and takes him on the journey of his lifetime\u2014one that will not only force him to face who he really is, but to discover if he is worthy of who he was born to be\u2026 a king.",
            "release_date": "2018-12-13"
        },
        {
            "vote_count": 126,
            "id": 399402,
            "video": false,
            "vote_average": 5.8,
            "title": "Hunter Killer",
            "popularity": 73.681,
            "poster_path": "\/t7ZpEIxMnxaljIeor3XB1PUX4lm.jpg",
            "original_language": "en",
            "original_title": "Hunter Killer",
            "genre_ids": [
                28,
                53
            ],
            "backdrop_path": "\/gCIB3DdK00DyfwosVGf7pnFFdK3.jpg",
            "adult": false,
            "overview": "An untested American submarine captain teams with U.S. Navy Seals to rescue the Russian president, who has been kidnapped by a rogue general.",
            "release_date": "2018-10-19"
        },
        {
            "vote_count": 4,
            "id": 424783,
            "video": false,
            "vote_average": 5.3,
            "title": "Bumblebee",
            "popularity": 65.23,
            "poster_path": "\/sG6n4ei1F0kVQtTs3fAjDghngpa.jpg",
            "original_language": "en",
            "original_title": "Bumblebee",
            "genre_ids": [
                28,
                12,
                878
            ],
            "backdrop_path": "\/wtZj5nn6hVwgakPdg6y6gm3eFXU.jpg",
            "adult": false,
            "overview": "On the run in the year 1987, Bumblebee finds refuge in a junkyard in a small Californian beach town. Charlie, on the cusp of turning 18 and trying to find her place in the world, discovers Bumblebee, battle-scarred and broken.  When Charlie revives him, she quickly learns this is no ordinary yellow VW bug.",
            "release_date": "2018-12-08"
        },
        {
            "vote_count": 14,
            "id": 324857,
            "video": false,
            "vote_average": 8.2,
            "title": "Spider-Man: Into the Spider-Verse",
            "popularity": 64.167,
            "poster_path": "\/iiZZdoQBEYBv6id8su7ImL0oCbD.jpg",
            "original_language": "en",
            "original_title": "Spider-Man: Into the Spider-Verse",
            "genre_ids": [
                28,
                12,
                16,
                878,
                35
            ],
            "backdrop_path": "\/x9a5SyueAYaa6daTKPoPNkzKaNB.jpg",
            "adult": false,
            "overview": "Miles Morales is juggling his life between being a high school student and being Spider-Man. However, when Wilson \"Kingpin\" Fisk uses a super collider, another Spider-Man from another dimension, Peter Parker, accidentally winds up in Miles' dimension. As Peter trains Miles to become a better Spider-Man, they are soon joined by four other Spider-Men from across the \"Spider-Verse\". As all these clashing dimensions start to tear Brooklyn apart, Miles must help the others stop Fisk and return everyone to their own dimensions.",
            "release_date": "2018-12-07"
        },
        {
            "vote_count": 92,
            "id": 396461,
            "video": false,
            "vote_average": 6.7,
            "title": "Under the Silver Lake",
            "popularity": 45.515,
            "poster_path": "\/cJ9aKlEgTLYtpYjNqin06YqJRUl.jpg",
            "original_language": "en",
            "original_title": "Under the Silver Lake",
            "genre_ids": [
                80,
                53,
                35,
                18,
                9648
            ],
            "backdrop_path": "\/dR64XOEucCT2nEg47DeEaeMaD9F.jpg",
            "adult": false,
            "overview": "Young and disenchanted Sam meets a mysterious and beautiful woman who's swimming in his building's pool one night. When she suddenly vanishes the next morning, Sam embarks on a surreal quest across Los Angeles to decode the secret behind her disappearance, leading him into the murkiest depths of mystery, scandal and conspiracy.",
            "release_date": "2018-04-19"
        },
        {
            "vote_count": 130,
            "id": 480530,
            "video": false,
            "vote_average": 7.4,
            "title": "Creed II",
            "popularity": 40.965,
            "poster_path": "\/v3QyboWRoA4O9RbcsqH8tJMe8EB.jpg",
            "original_language": "en",
            "original_title": "Creed II",
            "genre_ids": [
                18,
                28
            ],
            "backdrop_path": "\/6JHYYbvoSuQ95ceGx8Oeg8zzAjg.jpg",
            "adult": false,
            "overview": "Follows Adonis Creed's life inside and outside of the ring as he deals with new found fame, issues with his family, and his continuing quest to become a champion.",
            "release_date": "2018-11-20"
        },
        {
            "vote_count": 189,
            "id": 438590,
            "video": false,
            "vote_average": 5.4,
            "title": "A-X-L",
            "popularity": 40.203,
            "poster_path": "\/9kB56ZdMB6RgY5QtX9Bar45jCeI.jpg",
            "original_language": "en",
            "original_title": "A-X-L",
            "genre_ids": [
                878,
                28,
                12,
                10751
            ],
            "backdrop_path": "\/l1nYo0yzKjf84atnBDbx0do16vQ.jpg",
            "adult": false,
            "overview": "The life of a teenage boy is forever altered by a chance encounter with cutting edge military technology.",
            "release_date": "2018-08-16"
        },
        {
            "vote_count": 6387,
            "id": 129,
            "video": false,
            "vote_average": 8.5,
            "title": "Spirited Away",
            "popularity": 32.553,
            "poster_path": "\/oRvMaJOmapypFUcQqpgHMZA6qL9.jpg",
            "original_language": "ja",
            "original_title": "\u5343\u3068\u5343\u5c0b\u306e\u795e\u96a0\u3057",
            "genre_ids": [
                16,
                10751,
                14
            ],
            "backdrop_path": "\/mnpRKVSXBX6jb56nabvmGKA0Wig.jpg",
            "adult": false,
            "overview": "A young girl, Chihiro, becomes trapped in a strange new world of spirits. When her parents undergo a mysterious transformation, she must call upon the courage she never knew she had to free her family.",
            "release_date": "2001-07-20"
        },
        {
            "vote_count": 15,
            "id": 429202,
            "video": false,
            "vote_average": 10,
            "title": "Vox Lux",
            "popularity": 31.833,
            "poster_path": "\/aaq8kuZ4JTM9HtlD4thmXv9SNJt.jpg",
            "original_language": "en",
            "original_title": "Vox Lux",
            "genre_ids": [
                18
            ],
            "backdrop_path": "\/9Tjvnops66ItYh3BQ8A55pmsU8O.jpg",
            "adult": false,
            "overview": "In 1999, teenage sisters Celeste and Eleanor survive a seismic, violent tragedy. The sisters compose and perform a song about their experience, making something lovely and cathartic out of a catastrophe - while also catapulting Celeste to stardom. By 2017, Celeste is a mother to a teenage daughter of her own and is struggling to navigate a career fraught with scandals when another act of terrifying violence demands her attention.",
            "release_date": "2018-12-07"
        },
        {
            "vote_count": 295,
            "id": 433498,
            "video": false,
            "vote_average": 7.5,
            "title": "Papillon",
            "popularity": 29.694,
            "poster_path": "\/ahF5c6vyP8HWMqIwlhecbRALkjq.jpg",
            "original_language": "en",
            "original_title": "Papillon",
            "genre_ids": [
                18,
                12
            ],
            "backdrop_path": "\/lfMtVr5hkFeGy4dMaEf3XUQr76d.jpg",
            "adult": false,
            "overview": "Henri \u201cPapillon\u201d Charri\u00e8re, a safecracker from the Parisian underworld, is wrongfully convicted and sentenced to life imprisonment in the penal colony of French Guiana, where forges a strong friendship with Louis Dega, a counterfeiter who needs his protection.",
            "release_date": "2018-07-26"
        },
        {
            "vote_count": 171,
            "id": 401545,
            "video": false,
            "vote_average": 6.8,
            "title": "Everybody Knows",
            "popularity": 27.343,
            "poster_path": "\/1TuuM451os3NaltCwGfPCVL2BST.jpg",
            "original_language": "es",
            "original_title": "Todos lo saben",
            "genre_ids": [
                18,
                80,
                9648,
                53
            ],
            "backdrop_path": "\/gJqQxpe03aIRZZjy8A4nbLtBpch.jpg",
            "adult": false,
            "overview": "Laura, a Spanish woman living in Buenos Aires, returns to her hometown outside Madrid with her Argentinian husband and children. However, the trip is upset by unexpected events that bring secrets into the open.",
            "release_date": "2018-05-09"
        },
        {
            "vote_count": 107,
            "id": 335788,
            "video": false,
            "vote_average": 5.6,
            "title": "Renegades",
            "popularity": 24.981,
            "poster_path": "\/hx4nxhesaagsvJNhRw2fTobg8o.jpg",
            "original_language": "fr",
            "original_title": "Renegades",
            "genre_ids": [
                53,
                28
            ],
            "backdrop_path": "\/9DkRs9stY8kjEpF0iHQSbmB5lFW.jpg",
            "adult": false,
            "overview": "A team of Navy SEALs discovers an underwater treasure in a Bosnian lake.",
            "release_date": "2017-08-21"
        },
        {
            "vote_count": 38,
            "id": 514277,
            "video": false,
            "vote_average": 5.1,
            "title": "Mara",
            "popularity": 24.469,
            "poster_path": "\/gQDmXAef1Oc1SXci5mui2x5DJwt.jpg",
            "original_language": "en",
            "original_title": "Mara",
            "genre_ids": [
                80,
                27,
                53
            ],
            "backdrop_path": "\/5v60mZhF7nLgmPS3qZ9JUwDr33l.jpg",
            "adult": false,
            "overview": "Criminal psychologist Kate Fuller is assigned to the murder of a man who has seemingly been strangled in his sleep by his wife and the only witness is their eight-year-old daughter, Sophie. As Kate digs into the mystery of an ancient demon which kills people in their sleep, she experiences the same petrifying symptoms as all previous victims and spirals through a chilling nightmare to save herself and Sophie before she dares fall asleep again.",
            "release_date": "2018-09-06"
        },
        {
            "vote_count": 2,
            "id": 400650,
            "video": false,
            "vote_average": 0,
            "title": "Mary Poppins Returns",
            "popularity": 23.305,
            "poster_path": "\/3D4Z2MxV54t6d40hHzGpeUmVdsr.jpg",
            "original_language": "en",
            "original_title": "Mary Poppins Returns",
            "genre_ids": [
                14,
                10402,
                10751
            ],
            "backdrop_path": "\/aGSqYpbuGxfzwP60lEO5ELUHiyX.jpg",
            "adult": false,
            "overview": "In Depression-era London, a now-grown Jane and Michael Banks, along with Michael's three children, are visited by the enigmatic Mary Poppins following a personal loss. Through her unique magical skills, and with the aid of her friend Jack, she helps the family rediscover the joy and wonder missing in their lives.",
            "release_date": "2018-12-19"
        },
        {
            "vote_count": 230,
            "id": 451500,
            "video": false,
            "vote_average": 6.4,
            "title": "Santa & Cie",
            "popularity": 21.107,
            "poster_path": "\/mrz2fC1F9H8kbdKu2vOwyeMAzvg.jpg",
            "original_language": "fr",
            "original_title": "Santa & Cie",
            "genre_ids": [
                35
            ],
            "backdrop_path": "\/luuwG1o41gxgSvEUpozI1jMtKPD.jpg",
            "adult": false,
            "overview": "Christmas is on its way and with it disaster. The 92,000 responsible for manufacturing children's toys all become sick at the same time! It's a tough moment for Santa, better known as Father Christmas. He's left no choice: he must make an emergency trip to Earth with his reindeer to search for a remedy. When he arrives, he must find some allies to save the magic of Christmas.",
            "release_date": "2017-12-06"
        },
        {
            "vote_count": 21,
            "id": 527729,
            "video": false,
            "vote_average": 7.6,
            "title": "Asterix: The Magic Potion \u2019s Secret",
            "popularity": 19.473,
            "poster_path": "\/gQtZlstrjW0bdtmXoSW4UIpfIKP.jpg",
            "original_language": "fr",
            "original_title": "Ast\u00e9rix : Le Secret de la potion magique",
            "genre_ids": [
                16
            ],
            "backdrop_path": "\/7lQeFASfoD1GA665kEucF57pBdk.jpg",
            "adult": false,
            "overview": "May 28, 2018 - The tension is mounting, the magic potion bubbling\u2026 A new full-length animated feature, Asterix: The Secret of the Magic Potion, is coming to\u00a0..",
            "release_date": "2018-12-05"
        },
        {
            "vote_count": 35,
            "id": 456154,
            "video": false,
            "vote_average": 7,
            "title": "White Fang",
            "popularity": 17.069,
            "poster_path": "\/jJx8zvW0H2N1WxrjYE8hRxS1N3u.jpg",
            "original_language": "fr",
            "original_title": "Croc-Blanc",
            "genre_ids": [
                18,
                16,
                12
            ],
            "backdrop_path": "\/zpOMrQjaY7sqFoPk7AG4z65J1N5.jpg",
            "adult": false,
            "overview": "A loyal wolfdog\u2019s curiosity leads him on the adventure of a lifetime while serving a series of three distinctly different masters.",
            "release_date": "2018-03-28"
        },
        {
            "vote_count": 28,
            "id": 490132,
            "video": false,
            "vote_average": 8.5,
            "title": "Green Book",
            "popularity": 16.815,
            "poster_path": "\/h70wRv6iWxiqED4orqfxcEl74Rc.jpg",
            "original_language": "en",
            "original_title": "Green Book",
            "genre_ids": [
                18,
                35
            ],
            "backdrop_path": "\/78PjwaykLY2QqhMfWRDvmfbC6EV.jpg",
            "adult": false,
            "overview": "Tony Lip, a bouncer in 1962, is hired to drive pianist Don Shirley on a tour through the Deep South in the days when African Americans forced to find alternate accommodations and services due to segregation laws below the Mason-Dixon Line relied on a guide called The Negro Motorist Green Book.",
            "release_date": "2018-11-16"
        }
    ],
    "page": 1,
    "total_results": 166,
    "dates": {
        "maximum": "2018-12-30",
        "minimum": "2018-12-15"
    },
    "total_pages": 9
}

